mc20_13TeV.410470.PhPy8EG_A14_ttbar_hdamp258p75_nonallhad.deriv.DAOD_PHYS.e6337_s3681_r13167_p5631
mc20_13TeV.410470.PhPy8EG_A14_ttbar_hdamp258p75_nonallhad.deriv.DAOD_PHYS.e6337_s3681_r13144_p5631
mc20_13TeV.410470.PhPy8EG_A14_ttbar_hdamp258p75_nonallhad.deriv.DAOD_PHYS.e6337_s3681_r13145_p5631
mc20_13TeV.410471.PhPy8EG_A14_ttbar_hdamp258p75_allhad.deriv.DAOD_PHYS.e6337_s3681_r13167_p5631
mc20_13TeV.410471.PhPy8EG_A14_ttbar_hdamp258p75_allhad.deriv.DAOD_PHYS.e6337_s3681_r13144_p5631
mc20_13TeV.410471.PhPy8EG_A14_ttbar_hdamp258p75_allhad.deriv.DAOD_PHYS.e6337_s3681_r13145_p5631
mc20_13TeV.410644.PowhegPythia8EvtGen_A14_singletop_schan_lept_top.deriv.DAOD_PHYS.e6527_s3681_r13167_p5631
mc20_13TeV.410644.PowhegPythia8EvtGen_A14_singletop_schan_lept_top.deriv.DAOD_PHYS.e6527_s3681_r13144_p5631
mc20_13TeV.410644.PowhegPythia8EvtGen_A14_singletop_schan_lept_top.deriv.DAOD_PHYS.e6527_s3681_r13145_p5631
mc20_13TeV.410645.PowhegPythia8EvtGen_A14_singletop_schan_lept_antitop.deriv.DAOD_PHYS.e6527_s3681_r13167_p5631
mc20_13TeV.410645.PowhegPythia8EvtGen_A14_singletop_schan_lept_antitop.deriv.DAOD_PHYS.e6527_s3681_r13144_p5631
mc20_13TeV.410645.PowhegPythia8EvtGen_A14_singletop_schan_lept_antitop.deriv.DAOD_PHYS.e6527_s3681_r13145_p5631
mc20_13TeV.410646.PowhegPythia8EvtGen_A14_Wt_DR_inclusive_top.deriv.DAOD_PHYS.e6552_s3681_r13167_p5631
mc20_13TeV.410646.PowhegPythia8EvtGen_A14_Wt_DR_inclusive_top.deriv.DAOD_PHYS.e6552_s3681_r13144_p5631
mc20_13TeV.410646.PowhegPythia8EvtGen_A14_Wt_DR_inclusive_top.deriv.DAOD_PHYS.e6552_s3681_r13145_p5631
mc20_13TeV.410647.PowhegPythia8EvtGen_A14_Wt_DR_inclusive_antitop.deriv.DAOD_PHYS.e6552_s3681_r13167_p5631
mc20_13TeV.410647.PowhegPythia8EvtGen_A14_Wt_DR_inclusive_antitop.deriv.DAOD_PHYS.e6552_s3681_r13144_p5631
mc20_13TeV.410647.PowhegPythia8EvtGen_A14_Wt_DR_inclusive_antitop.deriv.DAOD_PHYS.e6552_s3681_r13145_p5631
mc20_13TeV.410654.PowhegPythia8EvtGen_A14_Wt_DS_inclusive_top.deriv.DAOD_PHYS.e6552_s3681_r13167_p5631
mc20_13TeV.410654.PowhegPythia8EvtGen_A14_Wt_DS_inclusive_top.deriv.DAOD_PHYS.e6552_s3681_r13144_p5631
mc20_13TeV.410654.PowhegPythia8EvtGen_A14_Wt_DS_inclusive_top.deriv.DAOD_PHYS.e6552_s3681_r13145_p5631
mc20_13TeV.410655.PowhegPythia8EvtGen_A14_Wt_DS_inclusive_antitop.deriv.DAOD_PHYS.e6552_s3681_r13167_p5631
mc20_13TeV.410655.PowhegPythia8EvtGen_A14_Wt_DS_inclusive_antitop.deriv.DAOD_PHYS.e6552_s3681_r13144_p5631
mc20_13TeV.410655.PowhegPythia8EvtGen_A14_Wt_DS_inclusive_antitop.deriv.DAOD_PHYS.e6552_s3681_r13145_p5631
mc20_13TeV.410658.PhPy8EG_A14_tchan_BW50_lept_top.deriv.DAOD_PHYS.e6671_s3681_r13167_p5631
mc20_13TeV.410658.PhPy8EG_A14_tchan_BW50_lept_top.deriv.DAOD_PHYS.e6671_s3681_r13144_p5631
mc20_13TeV.410658.PhPy8EG_A14_tchan_BW50_lept_top.deriv.DAOD_PHYS.e6671_s3681_r13145_p5631
mc20_13TeV.410659.PhPy8EG_A14_tchan_BW50_lept_antitop.deriv.DAOD_PHYS.e6671_s3681_r13167_p5631
mc20_13TeV.410659.PhPy8EG_A14_tchan_BW50_lept_antitop.deriv.DAOD_PHYS.e6671_s3681_r13144_p5631
mc20_13TeV.410659.PhPy8EG_A14_tchan_BW50_lept_antitop.deriv.DAOD_PHYS.e6671_s3681_r13145_p5631
